{
  "$schema": "https://schema.management.azure.com/schemas/2019-04-01/deploymentTemplate.json#",
  "contentVersion": "1.0.0.0",
  "parameters": {
    "Rule Name": {
      "defaultValue": "AZT301.3",
      "type": "String"
    }
  },
  "variables": {},
  "resources": [
    {
      "type": "microsoft.insights/scheduledqueryrules",
      "apiVersion": "2022-06-15",
      "name": "[parameters('Rule Name')]",
      "location": "[resourceGroup().location]",
      "properties": {
        "displayName": "[parameters('Rule Name')]",
        "description": "Virtual Machine Scripting: Desired State Configuration",
        "severity": 2,
        "enabled": true,
        "evaluationFrequency": "PT15M",
        "Scopes": [
          "[subscription().id]"
        ],
        "windowSize": "PT15M",
        "criteria": {
          "allOf": [
            {
              "query": "AzureActivity | where OperationNameValue == 'MICROSOFT.COMPUTE/VIRTUALMACHINES/EXTENSIONS/WRITE' and Properties_d has 'Microsoft.Powershell.DSC'",
              "timeAggregation": "Count",
              "dimensions": [],
              "operator": "GreaterThanOrEqual",
              "threshold": 1,
              "failingPeriods": {
                "numberOfEvaluationPeriods": 1,
                "minFailingPeriodsToAlert": 1
              }
            }
          ]
        },
        "autoMitigate": false
      }
    }
  ]
}